<svg xmlns="http://www.w3.org/2000/svg" xmlns:xlink="http://www.w3.org/1999/xlink" width="471.52" height="254" viewBox="0 0 471.52 254">
  <defs>
    <filter id="Path_22" x="153.52" y="12" width="318" height="242" filterUnits="userSpaceOnUse">
      <feOffset dy="3" input="SourceAlpha"/>
      <feGaussianBlur stdDeviation="3" result="blur"/>
      <feFlood flood-opacity="0.161"/>
      <feComposite operator="in" in2="blur"/>
      <feComposite in="SourceGraphic"/>
    </filter>
  </defs>
  <g id="dropdown" transform="translate(-940.48 -40)">
    <g transform="matrix(1, 0, 0, 1, 940.48, 40)" filter="url(#Path_22)">
      <path id="Path_22-2" data-name="Path 22" d="M0,0H300V224H0Z" transform="translate(162.52 18)" fill="#fff"/>
    </g>
    <text id="User-name-get-truncated-this-way-when_" data-name="User-name-get-truncated-this-way-when…" transform="translate(1119 88)" fill="#141823" font-size="14" font-family="Lato-Bold, Lato" font-weight="700"><tspan x="0" y="0">User-name-get-truncated-this-way-when…</tspan></text>
    <text id="useremail_something.com" data-name="useremail@something.com" transform="translate(1189 107)" fill="#141823" font-size="12" font-family="Lato-Regular, Lato"><tspan x="-70.185" y="0">useremail@something.com</tspan></text>
    <g id="Group_41" data-name="Group 41" transform="translate(1119.481 142)">
      <text id="Edit_profile" data-name="Edit profile" transform="translate(26)" fill="#141823" font-size="14" font-family="Lato-Regular, Lato"><tspan x="0" y="14">Edit profile</tspan></text>
      <text id="edit" transform="translate(0 18)" fill="#141823" font-size="18" font-family="eos-icons-extended"><tspan x="0" y="0">edit</tspan></text>
    </g>
    <g id="Group_53" data-name="Group 53" transform="translate(1119.481 169)">
      <text id="Settings" transform="translate(26)" fill="#141823" font-size="14" font-family="Lato-Regular, Lato"><tspan x="0" y="14">Settings</tspan></text>
      <text id="settings-2" data-name="settings" transform="translate(0 18)" fill="#141823" font-size="18" font-family="eos-icons-extended"><tspan x="0" y="0">settings</tspan></text>
    </g>
    <g id="Group_54" data-name="Group 54" transform="translate(1119.481 196)">
      <text id="My_subscriptions" data-name="My subscriptions" transform="translate(26)" fill="#141823" font-size="14" font-family="Lato-Regular, Lato"><tspan x="0" y="14">My subscriptions</tspan></text>
      <text id="subscriptions" transform="translate(0 18)" fill="#141823" font-size="18" font-family="eos-icons-extended"><tspan x="0" y="0">subscriptions</tspan></text>
    </g>
    <g id="Group_40" data-name="Group 40" transform="translate(1119.481 247)">
      <text id="Logout" transform="translate(26)" fill="#141823" font-size="14" font-family="Lato-Regular, Lato"><tspan x="0" y="14">Logout</tspan></text>
      <text id="exit_to_app" transform="translate(0 18)" fill="#141823" font-size="18" font-family="eos-icons-extended"><tspan x="0" y="0">exit_to_app</tspan></text>
    </g>
    <path id="Path_20" data-name="Path 20" d="M0,0H299.5" transform="translate(1103.5 231)" fill="none" stroke="#edeff0" stroke-width="1"/>
    <path id="Path_21" data-name="Path 21" d="M0,0H299.5" transform="translate(1103.5 126)" fill="none" stroke="#edeff0" stroke-width="1"/>
    <g id="Group_4" data-name="Group 4" transform="translate(940.48 40)" opacity="0.698">
      <rect id="Rectangle_17" data-name="Rectangle 17" width="458" height="31" rx="5" fill="#121212"/>
      <rect id="Rectangle_18" data-name="Rectangle 18" width="9" height="9" transform="translate(224.091 24.136) rotate(45)" fill="#121212"/>
    </g>
    <text id="User-name-get-truncated-this-way-when-is-too-long-_Display-onToolTip" data-name="User-name-get-truncated-this-way-when-is-too-long-&amp;Display-onToolTip" transform="translate(944.48 61)" fill="#fff" font-size="14" font-family="Lato-Regular, Lato"><tspan x="0" y="0">User-name-get-truncated-this-way-when-is-too-long-&amp;Display-onToolTip</tspan></text>
  </g>
</svg>
